iladata/waveform.vcd
$date
        2024-Mar-11 15:15:25
$end
$version
        Vivado v2023.1 (64-bit)
$end
$timescale
        1ps
$end
$scope module dut $end
$var reg 2 " design_1_i/system_ila_0/inst/net_slot_0_axi_ar_cnt [1:0] $end
$var reg 32 $ design_1_i/system_ila_0/inst/net_slot_0_axi_araddr [31:0] $end
$var reg 2 D design_1_i/system_ila_0/inst/net_slot_0_axi_arburst [1:0] $end
$var reg 4 F design_1_i/system_ila_0/inst/net_slot_0_axi_arcache [3:0] $end
$var reg 4 J design_1_i/system_ila_0/inst/net_slot_0_axi_arid [3:0] $end
$var reg 8 N design_1_i/system_ila_0/inst/net_slot_0_axi_arlen [7:0] $end
$var reg 1 V design_1_i/system_ila_0/inst/net_slot_0_axi_arlock $end
$var reg 3 W design_1_i/system_ila_0/inst/net_slot_0_axi_arprot [2:0] $end
$var reg 4 Z design_1_i/system_ila_0/inst/net_slot_0_axi_arqos [3:0] $end
$var reg 3 ^ design_1_i/system_ila_0/inst/net_slot_0_axi_arsize [2:0] $end
$var reg 2 a design_1_i/system_ila_0/inst/net_slot_0_axi_aw_cnt [1:0] $end
$var reg 32 c design_1_i/system_ila_0/inst/net_slot_0_axi_awaddr [31:0] $end
$var reg 2 %" design_1_i/system_ila_0/inst/net_slot_0_axi_awburst [1:0] $end
$var reg 4 '" design_1_i/system_ila_0/inst/net_slot_0_axi_awcache [3:0] $end
$var reg 4 +" design_1_i/system_ila_0/inst/net_slot_0_axi_awid [3:0] $end
$var reg 8 /" design_1_i/system_ila_0/inst/net_slot_0_axi_awlen [7:0] $end
$var reg 1 7" design_1_i/system_ila_0/inst/net_slot_0_axi_awlock $end
$var reg 3 8" design_1_i/system_ila_0/inst/net_slot_0_axi_awprot [2:0] $end
$var reg 4 ;" design_1_i/system_ila_0/inst/net_slot_0_axi_awqos [3:0] $end
$var reg 3 ?" design_1_i/system_ila_0/inst/net_slot_0_axi_awsize [2:0] $end
$var reg 2 B" design_1_i/system_ila_0/inst/net_slot_0_axi_b_cnt [1:0] $end
$var reg 4 D" design_1_i/system_ila_0/inst/net_slot_0_axi_bid [3:0] $end
$var reg 2 H" design_1_i/system_ila_0/inst/net_slot_0_axi_bresp [1:0] $end
$var reg 2 J" design_1_i/system_ila_0/inst/net_slot_0_axi_r_cnt [1:0] $end
$var reg 64 L" design_1_i/system_ila_0/inst/net_slot_0_axi_rdata [63:0] $end
$var reg 4 .# design_1_i/system_ila_0/inst/net_slot_0_axi_rid [3:0] $end
$var reg 2 2# design_1_i/system_ila_0/inst/net_slot_0_axi_rresp [1:0] $end
$var reg 64 4# design_1_i/system_ila_0/inst/net_slot_0_axi_wdata [63:0] $end
$var reg 8 t# design_1_i/system_ila_0/inst/net_slot_0_axi_wstrb [7:0] $end
$var reg 2 |# design_1_i/system_ila_0/inst/net_slot_0_axi_aw_ctrl [1:0] $end
$var reg 1 ~# design_1_i/system_ila_0/inst/net_slot_0_axi_awvalid $end
$var reg 1 !$ design_1_i/system_ila_0/inst/net_slot_0_axi_awready $end
$var reg 3 "$ design_1_i/system_ila_0/inst/net_slot_0_axi_w_ctrl [2:0] $end
$var reg 1 %$ design_1_i/system_ila_0/inst/net_slot_0_axi_wvalid $end
$var reg 1 &$ design_1_i/system_ila_0/inst/net_slot_0_axi_wready $end
$var reg 1 '$ design_1_i/system_ila_0/inst/net_slot_0_axi_wlast $end
$var reg 2 ($ design_1_i/system_ila_0/inst/net_slot_0_axi_b_ctrl [1:0] $end
$var reg 1 *$ design_1_i/system_ila_0/inst/net_slot_0_axi_bvalid $end
$var reg 1 +$ design_1_i/system_ila_0/inst/net_slot_0_axi_bready $end
$var reg 2 ,$ design_1_i/system_ila_0/inst/net_slot_0_axi_ar_ctrl [1:0] $end
$var reg 1 .$ design_1_i/system_ila_0/inst/net_slot_0_axi_arvalid $end
$var reg 1 /$ design_1_i/system_ila_0/inst/net_slot_0_axi_arready $end
$var reg 3 0$ design_1_i/system_ila_0/inst/net_slot_0_axi_r_ctrl [2:0] $end
$var reg 1 3$ design_1_i/system_ila_0/inst/net_slot_0_axi_rvalid $end
$var reg 1 4$ design_1_i/system_ila_0/inst/net_slot_0_axi_rready $end
$var reg 1 5$ design_1_i/system_ila_0/inst/net_slot_0_axi_rlast $end
$var reg 3 6$ AR_Channel__i1_s0___RISCV_axi4_mem_ [2:0] $end
$var reg 3 9$ AW_Channel__i1_s0___RISCV_axi4_mem_ [2:0] $end
$var reg 3 <$ B_Channel__i1_s0___RISCV_axi4_mem_ [2:0] $end
$var reg 3 ?$ Interface__i1_s0___RISCV_axi4_mem_ [2:0] $end
$var reg 3 B$ R_Channel__i1_s0___RISCV_axi4_mem_ [2:0] $end
$var reg 3 E$ W_Channel__i1_s0___RISCV_axi4_mem_ [2:0] $end
$var reg 16 H$ ila_1___slot_0___RISCV_axi4_mem___Read_Transactions_0 [15:0] $end
$var reg 16 X$ ila_1___slot_0___RISCV_axi4_mem___Write_Transactions_0 [15:0] $end
$var reg 1 h$ _TRIGGER $end
$var reg 1 i$ _WINDOW $end
$var reg 1 j$ _GAP $end
$upscope $end
$enddefinitions $end
#0
$dumpvars
b1 "
b0 $
b1 D
b0 F
b0 J
b0 N
0V
b1 W
b0 Z
b0 ^
b0 a
b0 c
b1 %"
b0 '"
b0 +"
b0 /"
07"
b1 8"
b0 ;"
b0 ?"
b0 B"
b1000 D"
b0 H"
b1 J"
b1101 L"
b10 .#
b0 2#
b0 4#
b0 t#
b10 |#
0~#
1!$
b100 "$
0%$
0&$
1'$
b10 ($
0*$
1+$
b10 ,$
0.$
1/$
b0 0$
03$
04$
05$
b0 6$
b0 9$
b0 <$
b0 ?$
b0 B$
b0 E$
b0 H$
b0 X$
0h$
1i$
0j$
$end
#19
b100001000000001010000011000000101000001000000010100000010000001 L"
b0 ($
0+$
b11 0$
13$
14$
b1 ?$
b1 B$
#20
b100010000000001010000111000000101000011000000010100001010000001 L"
#21
b100011000000001010001011000000101000101000000010100010010000001 L"
#22
b100100000000001010001111000000101000111000000010100011010000001 L"
#23
b100101000000001010010011000000101001001000000010100100010000001 L"
#24
b100110000000001010010111000000101001011000000010100101010000001 L"
#25
b100111000000001010011011000000101001101000000010100110010000001 L"
#26
b110001011111001010011111000000101001111000000010100111010000001 L"
b111 0$
15$
b111 B$
#27
b0 "
b0 J"
b100001000000001010000011000000101000001000000010100000010000001 L"
b10 ($
1+$
b0 0$
03$
04$
05$
b0 ?$
b0 B$
#76
b10000000000000000000000001000000 $
b110 J
b111 N
b11 ^
b10000000000000000000000001000000 c
b110 +"
b111 /"
b11 ?"
b1011111110010000101000010100110000000000101010000001110011 4#
b11111111 t#
b11 |#
1~#
b1 "$
1%$
0'$
b10 9$
b1 ?$
b1 X$
#77
b1 a
b1 B"
b0 |#
0~#
0!$
b0 9$
b0 ?$
#78
b10 |#
1!$
#79
b110 D"
b11 "$
1&$
b1 ?$
b1 E$
#80
b1001010010111010001010000010100000000000000101101100001100011 4#
#81
b1011111111011101111110101010001010101001001000110000000000000000 4#
#82
b1001010010111010001010000010100000000000000101101100001100011 4#
b10 "$
0%$
b0 ?$
b0 E$
#83
b100100000010100000101001001100000000000000000000001010010111 4#
b11 "$
1%$
b1 ?$
b1 E$
#84
b110000000100000111001100110000010100101001000001110011 4#
#85
b1111000000000000000000001101001111110000000000000000000001010011 4#
#86
b1111000000000000000000011101001111110000000000000000000101010011 4#
#87
b1111000000000000000000101101001111110000000000000000001001010011 4#
b111 "$
1'$
b111 E$
#88
b0 $
b0 J
b0 N
b0 ^
b0 c
b0 +"
b0 /"
b0 ?"
b0 4#
b0 t#
b100 "$
0%$
0&$
b0 ?$
b0 E$
#100
b11 ($
1*$
b10 <$
b1 ?$
1h$
#101
b10000000000000000000000001000000 $
b10 J
b111 N
b11 ^
b0 a
b10000000000000000000000001000000 c
b10 +"
b111 /"
b11 ?"
b0 B"
b11111111 t#
b10 ($
0*$
b11 ,$
1.$
b10 6$
b0 <$
b1 H$
b0 X$
#102
b1 "
b0 $
b0 J
b0 N
b0 ^
b0 c
b0 +"
b0 /"
b0 ?"
b1 J"
b0 t#
b0 ,$
0.$
0/$
b0 6$
b0 ?$
#103
b10 ,$
1/$
#123
b1011111110010000101000010100110000000000101010000001110011 L"
b0 ($
0+$
b11 0$
13$
14$
b1 ?$
b1 B$
#124
b1001010010111010001010000010100000000000000101101100001100011 L"
#125
b1011111111011101111110101010001010101001001000110000000000000000 L"
#126
b100100000010100000101001001100000000000000000000001010010111 L"
#127
b110000000100000111001100110000010100101001000001110011 L"
#128
b1111000000000000000000001101001111110000000000000000000001010011 L"
#129
b1111000000000000000000011101001111110000000000000000000101010011 L"
#130
b1111000000000000000000101101001111110000000000000000001001010011 L"
b111 0$
15$
b111 B$
#131
b0 "
b0 J"
b1011111110010000101000010100110000000000101010000001110011 L"
b10 ($
1+$
b0 0$
03$
04$
05$
b0 ?$
b0 B$
b0 H$
#173
b10000000000000000000000010000000 $
b10 J
b111 N
b11 ^
b10000000000000000000000010000000 c
b10 +"
b111 /"
b11 ?"
b11111111 t#
b11 ,$
1.$
b10 6$
b1 ?$
b10 H$
#174
b1 "
b0 $
b0 J
b0 N
b0 ^
b0 c
b0 +"
b0 /"
b0 ?"
b1 J"
b0 t#
b0 ,$
0.$
0/$
b0 6$
b0 ?$
#175
b10 ,$
1/$
#197
b1111000000000000000000111101001111110000000000000000001101010011 L"
b0 ($
0+$
b11 0$
13$
14$
b1 ?$
b1 B$
#198
b1111000000000000000001001101001111110000000000000000010001010011 L"
#199
b1111000000000000000001011101001111110000000000000000010101010011 L"
#200
b1111000000000000000001101101001111110000000000000000011001010011 L"
#201
b1111000000000000000001111101001111110000000000000000011101010011 L"
#202
b1111000000000000000010001101001111110000000000000000100001010011 L"
#203
b1111000000000000000010011101001111110000000000000000100101010011 L"
#204
b1111000000000000000010101101001111110000000000000000101001010011 L"
b111 0$
15$
b111 B$
#205
b0 "
b0 J"
b1111000000000000000000111101001111110000000000000000001101010011 L"
b10 ($
1+$
b0 0$
03$
04$
05$
b0 ?$
b0 B$
b0 H$
#236
b10000000000000000000000011000000 $
b10 J
b111 N
b11 ^
b10000000000000000000000011000000 c
b10 +"
b111 /"
b11 ?"
b11111111 t#
b11 ,$
1.$
b10 6$
b1 ?$
b11 H$
#237
b1 "
b0 $
b0 J
b0 N
b0 ^
b0 c
b0 +"
b0 /"
b0 ?"
b1 J"
b0 t#
b0 ,$
0.$
0/$
b0 6$
b0 ?$
#238
b10 ,$
1/$
#260
b1111000000000000000010111101001111110000000000000000101101010011 L"
b0 ($
0+$
b11 0$
13$
14$
b1 ?$
b1 B$
#261
b1111000000000000000011001101001111110000000000000000110001010011 L"
#262
b1111000000000000000011011101001111110000000000000000110101010011 L"
#263
b1111000000000000000011101101001111110000000000000000111001010011 L"
#264
b1111000000000000000011111101001111110000000000000000111101010011 L"
#265
b1110000010100000101001001100000000000000000000001010010111 L"
#266
b10100011001011100110000010100101001000001110011 L"
#267
b1000101011110001100000100001001101001101110000011000000110010011 L"
b111 0$
15$
b111 B$
#268
b0 "
b0 J"
b1111000000000000000010111101001111110000000000000000101101010011 L"
b10 ($
1+$
b0 0$
03$
04$
05$
b0 ?$
b0 B$
b0 H$
#305
b10000000000000000000000100000000 $
b110 J
b111 N
b11 ^
b10000000000000000000000100000000 c
b110 +"
b111 /"
b11 ?"
b1111000101000000001001010111001111111100000000100111001000010011 4#
b11111111 t#
b11 |#
1~#
b1 "$
1%$
0'$
b10 9$
b1 ?$
b10 X$
#306
b1 a
b1 B"
b0 |#
0~#
0!$
b0 9$
b0 ?$
#307
b10 |#
1!$
#308
b11 "$
1&$
b1 ?$
b1 E$
#309
b100010011000000001011010101110000011000110100010110000101 4#
#310
b1011000010011100100010001001000000001010001100000000000010101 4#
#311
b100010011000000001011010101110000011000110100010110000101 4#
b10 "$
0%$
b0 ?$
b0 E$
#312
b10001010110000001100000110111110010010001100100000000100010101 4#
b11 "$
1%$
b1 ?$
b1 E$
#313
b1110110000001110111010000000101011100100000001100111000101101101 4#
#314
b1111110000011110111110000001101011110100000101101111000000010010 4#
#315
b1110110010101110111010001010101011100100101001101110000010100010 4#
#316
b1111110010111110111110001011101011110100101101101111000010110010 4#
b111 "$
1'$
b111 E$
#317
b0 $
b0 J
b0 N
b0 ^
b0 c
b0 +"
b0 /"
b0 ?"
b0 4#
b0 t#
b100 "$
0%$
0&$
b0 ?$
b0 E$
#330
b11 ($
1*$
b10 <$
b1 ?$
#331
b10000000000000000000000100000000 $
b10 J
b111 N
b11 ^
b0 a
b10000000000000000000000100000000 c
b10 +"
b111 /"
b11 ?"
b0 B"
b11111111 t#
b10 ($
0*$
b11 ,$
1.$
b10 6$
b0 <$
b100 H$
b0 X$
#332
b1 "
b0 $
b0 J
b0 N
b0 ^
b0 c
b0 +"
b0 /"
b0 ?"
b1 J"
b0 t#
b0 ,$
0.$
0/$
b0 6$
b0 ?$
#333
b10 ,$
1/$
#353
b1111000101000000001001010111001111111100000000100111001000010011 L"
b0 ($
0+$
b11 0$
13$
14$
b1 ?$
b1 B$
#354
b100010011000000001011010101110000011000110100010110000101 L"
#355
b1011000010011100100010001001000000001010001100000000000010101 L"
#356
b10001010110000001100000110111110010010001100100000000100010101 L"
#357
b1110110000001110111010000000101011100100000001100111000101101101 L"
#358
b1111110000011110111110000001101011110100000101101111000000010010 L"
#359
b1110110010101110111010001010101011100100101001101110000010100010 L"
#360
b1111110010111110111110001011101011110100101101101111000010110010 L"
b111 0$
15$
b111 B$
#361
b0 "
b0 J"
b1111000101000000001001010111001111111100000000100111001000010011 L"
b10 ($
1+$
b0 0$
03$
04$
05$
b0 ?$
b0 B$
b0 H$
#389
b10000000000000000011101101000000 $
b110 J
b111 N
b11 ^
b10000000000000000011101101000000 c
b110 +"
b111 /"
b11 ?"
b111000101110001100000001000001010000000100000101111111011001110 4#
b11111111 t#
b11 |#
1~#
b1 "$
1%$
0'$
b10 9$
b1 ?$
b11 X$
#390
b1 a
b1 B"
b0 |#
0~#
0!$
b0 9$
b0 ?$
#391
b10 |#
1!$
#392
b11 "$
1&$
b1 ?$
b1 E$
#393
b100100010011111101010000011011101001010010101111000100100010 4#
#394
b10000110011000000000000001000000011000100110000000000000010 4#
#395
b100100010011111101010000011011101001010010101111000100100010 4#
b10 "$
0%$
b0 ?$
b0 E$
#396
b1110000101010010111001010100111010000110001000100100000001101001 4#
b11 "$
1%$
b1 ?$
b1 E$
#397
b1000010110010011100001010001001010001010001011101000100110101010 4#
#398
b1000101010010010111111001101011011101101001001101000011100000001 4#
#399
b10001000010000001010001001111110011111111111111000011101111 4#
#400
b1000010100110011010001011000000101000001001001010000011000110011 4#
b111 "$
1'$
b111 E$
#401
b0 $
b0 J
b0 N
b0 ^
b0 c
b0 +"
b0 /"
b0 ?"
b0 4#
b0 t#
b100 "$
0%$
0&$
b0 ?$
b0 E$
#414
b11 ($
1*$
b10 <$
b1 ?$
#415
b10000000000000000011101101000000 $
b10 J
b111 N
b11 ^
b0 a
b10000000000000000011101101000000 c
b10 +"
b111 /"
b11 ?"
b0 B"
b11111111 t#
b10 ($
0*$
b11 ,$
1.$
b10 6$
b0 <$
b101 H$
b0 X$
#416
b1 "
b0 $
b0 J
b0 N
b0 ^
b0 c
b0 +"
b0 /"
b0 ?"
b1 J"
b0 t#
b0 ,$
0.$
0/$
b0 6$
b0 ?$
#417
b10 ,$
1/$
#438
b111000101110001100000001000001010000000100000101111111011001110 L"
b0 ($
0+$
b11 0$
13$
14$
b1 ?$
b1 B$
#439
b100100010011111101010000011011101001010010101111000100100010 L"
#440
b10000110011000000000000001000000011000100110000000000000010 L"
#441
b1110000101010010111001010100111010000110001000100100000001101001 L"
#442
b1000010110010011100001010001001010001010001011101000100110101010 L"
#443
b1000101010010010111111001101011011101101001001101000011100000001 L"
#444
b10001000010000001010001001111110011111111111111000011101111 L"
#445
b1000010100110011010001011000000101000001001001010000011000110011 L"
b111 0$
15$
b111 B$
#446
b0 "
b0 J"
b111000101110001100000001000001010000000100000101111111011001110 L"
b10 ($
1+$
b0 0$
03$
04$
05$
b0 ?$
b0 B$
b0 H$
#458
b10000000000000000000111000000000 $
b1000 J
b111 N
b11 ^
b10000000000000000000111000000000 c
b1000 +"
b111 /"
b11 ?"
b100 4#
b11111111 t#
b11 |#
1~#
b1 "$
1%$
0'$
b10 9$
b1 ?$
b100 X$
#459
b1 a
b1 B"
b0 |#
0~#
0!$
b0 9$
b0 ?$
#460
b10 |#
1!$
#461
b1000 D"
b11 "$
1&$
b1 ?$
b1 E$
#462
b10000000000000000100111001000000 4#
#463
b0 4#
#464
b10000000000000000100111001000000 4#
b10 "$
0%$
b0 ?$
b0 E$
#465
b10000000000000000100101101110011 4#
b11 "$
1%$
b1 ?$
b1 E$
#466
b1010100 4#
#467
b10000000000000000100101101110011 4#
#468
b10000000000000000100111001000000 4#
#469
b0 4#
b111 "$
1'$
b111 E$
#470
b0 $
b0 J
b0 N
b0 ^
b0 c
b0 +"
b0 /"
b0 ?"
b0 t#
b100 "$
0%$
0&$
b0 ?$
b0 E$
#476
b10000000000000100100111000000000 $
b1100 J
b111 N
b11 ^
b10000000000000100100111000000000 c
b1100 +"
b111 /"
b11 ?"
b11111111 t#
b11 ,$
1.$
b10 6$
b1 ?$
b110 H$
#477
b1 "
b0 $
b0 J
b0 N
b0 ^
b0 c
b0 +"
b0 /"
b0 ?"
b1 J"
b0 t#
b0 ,$
0.$
0/$
b0 6$
b0 ?$
#478
b10 ,$
1/$
#479
b1100 .#
#482
b11 ($
1*$
b10 <$
b1 ?$
#483
b0 a
b0 B"
b10 ($
0*$
b0 <$
b0 ?$
b0 X$
#502
b1010 L"
b0 ($
0+$
b11 0$
13$
14$
b1 ?$
b1 B$
#503
b0 L"
#509
b111 0$
15$
b111 B$
#510
b0 "
b0 J"
b1010 L"
b10 ($
1+$
b0 0$
03$
04$
05$
b0 ?$
b0 B$
b0 H$
#541
b10000000000000000011101010000000 $
b110 J
b111 N
b11 ^
b10000000000000000011101010000000 c
b110 +"
b111 /"
b11 ?"
b10111110001110000001110100000000110011000011110101110 4#
b11111111 t#
b11 |#
1~#
b1 "$
1%$
0'$
b10 9$
b1 ?$
b101 X$
#542
b1 a
b1 B"
b0 |#
0~#
0!$
b0 9$
b0 ?$
#543
b10 |#
1!$
#544
b110 D"
b11 "$
1&$
b1 ?$
b1 E$
#545
b101010001011111111111011011010000011110000101 4#
#546
b100000010110111100001011011001100001110110001010000010100010011 4#
#547
b101010001011111111111011011010000011110000101 4#
b10 "$
0%$
b0 ?$
b0 E$
#548
b1111000011101111100001010010001011000010101111111111000011101111 4#
b11 "$
1%$
b1 ?$
b1 E$
#549
b100001100000000001010001001100010001010000011111010100111111 4#
#550
b1110011110110011111111000011111111110000111011111110010000000110 4#
#551
b1111001100010011000000001111010101100010101100110000000011000101 4#
#552
b111101100011000000001100010100000110101100110000000001110010 4#
b111 "$
1'$
b111 E$
#553
b0 $
b0 J
b0 N
b0 ^
b0 c
b0 +"
b0 /"
b0 ?"
b0 4#
b0 t#
b100 "$
0%$
0&$
b0 ?$
b0 E$
#566
b11 ($
1*$
b10 <$
b1 ?$
#567
b10000000000000000011101010000000 $
b10 J
b111 N
b11 ^
b0 a
b10000000000000000011101010000000 c
b10 +"
b111 /"
b11 ?"
b0 B"
b11111111 t#
b10 ($
0*$
b11 ,$
1.$
b10 6$
b0 <$
b111 H$
b0 X$
#568
b1 "
b0 $
b0 J
b0 N
b0 ^
b0 c
b0 +"
b0 /"
b0 ?"
b1 J"
b0 t#
b0 ,$
0.$
0/$
b0 6$
b0 ?$
#569
b10 ,$
1/$
#570
b10 .#
#589
b10111110001110000001110100000000110011000011110101110 L"
b0 ($
0+$
b11 0$
13$
14$
b1 ?$
b1 B$
#590
b101010001011111111111011011010000011110000101 L"
#591
b100000010110111100001011011001100001110110001010000010100010011 L"
#592
b1111000011101111100001010010001011000010101111111111000011101111 L"
#593
b100001100000000001010001001100010001010000011111010100111111 L"
#594
b1110011110110011111111000011111111110000111011111110010000000110 L"
#595
b1111001100010011000000001111010101100010101100110000000011000101 L"
#596
b111101100011000000001100010100000110101100110000000001110010 L"
b111 0$
15$
b111 B$
#597
b0 "
b0 J"
b10111110001110000001110100000000110011000011110101110 L"
b10 ($
1+$
b0 0$
03$
04$
05$
b0 ?$
b0 B$
b0 H$
#618
b10000000000000000011101011000000 $
b10 J
b111 N
b11 ^
b10000000000000000011101011000000 c
b10 +"
b111 /"
b11 ?"
b11111111 t#
b11 ,$
1.$
b10 6$
b1 ?$
b1000 H$
#619
b1 "
b0 $
b0 J
b0 N
b0 ^
b0 c
b0 +"
b0 /"
b0 ?"
b1 J"
b0 t#
b0 ,$
0.$
0/$
b0 6$
b0 ?$
#620
b10 ,$
1/$
#642
b111011101100011100000111010101010010110001011100000000000000011 L"
b0 ($
0+$
b11 0$
13$
14$
b1 ?$
b1 B$
#643
b10110000101000000000000010111000111000000110000001011010101 L"
#644
b1101011100011111111101110001110001111101000110000001110000101 L"
#645
b1111111011010101011111111110001110000000100000101111111010110110 L"
#646
b100010100001000000000000010110111000000000111000100010101010 L"
#647
b1110101011100011111111110000100010111100001000110000010110100001 L"
#648
b110011110110011100000001000001010000000100000101111111011011000 L"
#649
b1001011000101010000000000111011111110010100100110000000011000101 L"
b111 0$
15$
b111 B$
#650
b0 "
b0 J"
b111011101100011100000111010101010010110001011100000000000000011 L"
b10 ($
1+$
b0 0$
03$
04$
05$
b0 ?$
b0 B$
b0 H$
#675
b10000000000000000011101110000000 $
b110 J
b111 N
b11 ^
b10000000000000000011101110000000 c
b110 +"
b111 /"
b11 ?"
b1000010111010010111101110101111111110000111011110000000010001010 4#
b11111111 t#
b11 |#
1~#
b1 "$
1%$
0'$
b10 9$
b1 ?$
b110 X$
#676
b1 a
b1 B"
b0 |#
0~#
0!$
b0 9$
b0 ?$
#677
b10 |#
1!$
#678
b11 "$
1&$
b1 ?$
b1 E$
#679
b1011011110000011110101110001111111110000111011111000010101001110 4#
#680
b100010110001101000000011000011111000111000000111000000110000001 4#
#681
b1011011110000011110101110001111111110000111011111000010101001110 4#
b10 "$
0%$
b0 ?$
b0 E$
#682
b11100111100011000010001100000110001100000000011100010011 4#
b11 "$
1%$
b1 ?$
b1 E$
#683
b10110111100011001010001100000001100101111100011100000011 4#
#684
b111100011010010001100000001101001111100011100000011 4#
#685
b1000110110100011010010000000010100000001101101111100011100000011 4#
#686
b1000010000100011000000001000011111000110100000110000000000000111 4#
b111 "$
1'$
b111 E$
#687
b0 $
b0 J
b0 N
b0 ^
b0 c
b0 +"
b0 /"
b0 ?"
b0 4#
b0 t#
b100 "$
0%$
0&$
b0 ?$
b0 E$
#700
b11 ($
1*$
b10 <$
b1 ?$
#701
b10000000000000000011101110000000 $
b10 J
b111 N
b11 ^
b0 a
b10000000000000000011101110000000 c
b10 +"
b111 /"
b11 ?"
b0 B"
b11111111 t#
b10 ($
0*$
b11 ,$
1.$
b10 6$
b0 <$
b1001 H$
b0 X$
#702
b1 "
b0 $
b0 J
b0 N
b0 ^
b0 c
b0 +"
b0 /"
b0 ?"
b1 J"
b0 t#
b0 ,$
0.$
0/$
b0 6$
b0 ?$
#703
b10 ,$
1/$
#723
b1000010111010010111101110101111111110000111011110000000010001010 L"
b0 ($
0+$
b11 0$
13$
14$
b1 ?$
b1 B$
#724
b1011011110000011110101110001111111110000111011111000010101001110 L"
#725
b100010110001101000000011000011111000111000000111000000110000001 L"
#726
b11100111100011000010001100000110001100000000011100010011 L"
#727
b10110111100011001010001100000001100101111100011100000011 L"
#728
b111100011010010001100000001101001111100011100000011 L"
#729
b1000110110100011010010000000010100000001101101111100011100000011 L"
#730
b1000010000100011000000001000011111000110100000110000000000000111 L"
b111 0$
15$
b111 B$
#731
b0 "
b0 J"
b1000010111010010111101110101111111110000111011110000000010001010 L"
b10 ($
1+$
b0 0$
03$
04$
05$
b0 ?$
b0 B$
b0 H$
#754
b10000000000000000011101100000000 $
b110 J
b111 N
b11 ^
b10000000000000000011101100000000 c
b110 +"
b111 /"
b11 ?"
b10100010110110001100001111111101011111010110010011 4#
b11111111 t#
b11 |#
1~#
b1 "$
1%$
0'$
b10 9$
b1 ?$
b111 X$
#755
b1 a
b1 B"
b0 |#
0~#
0!$
b0 9$
b0 ?$
#756
b10 |#
1!$
#757
b11 "$
1&$
b1 ?$
b1 E$
#758
b1100000101000000101100010101111101011000111000001100101010 4#
#759
b1111111001100110000111011110001111111110101100110000111110100011 4#
#760
b1100000101000000101100010101111101011000111000001100101010 4#
b10 "$
0%$
b0 ?$
b0 E$
#761
b1110011010110011000000001000010110010011100100111000000010000010 4#
b11 "$
1%$
b1 ?$
b1 E$
#762
b1110100000110011000000010000011010010111000100110000000001110101 4#
#763
b110111000110011000000100000100000011000100100110000000011100110 4#
#764
b1000111010101010111111101100010101110011111000110000000100011000 4#
#765
b1110110111100011111111111100111010111100001000110000111010100001 4#
b111 "$
1'$
b111 E$
#766
b0 $
b0 J
b0 N
b0 ^
b0 c
b0 +"
b0 /"
b0 ?"
b0 4#
b0 t#
b100 "$
0%$
0&$
b0 ?$
b0 E$
#778
b11 ($
1*$
b10 <$
b1 ?$
#779
b10000000000000000011101100000000 $
b10 J
b111 N
b11 ^
b0 a
b10000000000000000011101100000000 c
b10 +"
b111 /"
b11 ?"
b0 B"
b11111111 t#
b10 ($
0*$
b11 ,$
1.$
b10 6$
b0 <$
b1010 H$
b0 X$
#780
b1 "
b0 $
b0 J
b0 N
b0 ^
b0 c
b0 +"
b0 /"
b0 ?"
b1 J"
b0 t#
b0 ,$
0.$
0/$
b0 6$
b0 ?$
#781
b10 ,$
1/$
#801
b10100010110110001100001111111101011111010110010011 L"
b0 ($
0+$
b11 0$
13$
14$
b1 ?$
b1 B$
#802
b1100000101000000101100010101111101011000111000001100101010 L"
#803
b1111111001100110000111011110001111111110101100110000111110100011 L"
#804
b1110011010110011000000001000010110010011100100111000000010000010 L"
#805
b1110100000110011000000010000011010010111000100110000000001110101 L"
#806
b110111000110011000000100000100000011000100100110000000011100110 L"
#807
b1000111010101010111111101100010101110011111000110000000100011000 L"
#808
b1110110111100011111111111100111010111100001000110000111010100001 L"
b111 0$
15$
b111 B$
#809
b0 "
b0 J"
b10100010110110001100001111111101011111010110010011 L"
b10 ($
1+$
b0 0$
03$
04$
05$
b0 ?$
b0 B$
b0 H$
#825
b10000000000000000000111001000000 $
b1000 J
b111 N
b11 ^
b10000000000000000000111001000000 c
b1000 +"
b111 /"
b11 ?"
b1 4#
b11111111 t#
b11 |#
1~#
b1 "$
1%$
0'$
b10 9$
b1 ?$
b1000 X$
#826
b1 a
b1 B"
b0 |#
0~#
0!$
b0 9$
b0 ?$
#827
b10 |#
1!$
#828
b1000 D"
b11 "$
1&$
b1 ?$
b1 E$
#829
b10000000000000000100111001000000 4#
#830
b0 4#
#831
b10000000000000000100111001000000 4#
b10 "$
0%$
b0 ?$
b0 E$
#832
b0 4#
b11 "$
1%$
b1 ?$
b1 E$
#836
b111 "$
1'$
b111 E$
#837
b0 $
b0 J
b0 N
b0 ^
b0 c
b0 +"
b0 /"
b0 ?"
b0 t#
b100 "$
0%$
0&$
b0 ?$
b0 E$
#843
b10000000000000000100111001000000 $
b1100 J
b111 N
b11 ^
b10000000000000000100111001000000 c
b1100 +"
b111 /"
b11 ?"
b11111111 t#
b11 ,$
1.$
b10 6$
b1 ?$
b1011 H$
#844
b1 "
b0 $
b0 J
b0 N
b0 ^
b0 c
b0 +"
b0 /"
b0 ?"
b1 J"
b0 t#
b0 ,$
0.$
0/$
b0 6$
b0 ?$
#845
b10 ,$
1/$
#846
b1100 .#
#850
b11 ($
1*$
b10 <$
b1 ?$
#851
b0 a
b0 B"
b10 ($
0*$
b0 <$
b0 ?$
b0 X$
#865
b1010100 L"
b0 ($
0+$
b11 0$
13$
14$
b1 ?$
b1 B$
#866
b10000000000000000100101101110011 L"
#867
b10000000000000000100111001000000 L"
#868
b0 L"
#869
b1 L"
#870
b10000000000000000100111001000000 L"
#871
b0 L"
#872
b111 0$
15$
b111 B$
#873
b0 "
b0 J"
b1010100 L"
b10 ($
1+$
b0 0$
03$
04$
05$
b0 ?$
b0 B$
b0 H$
